17.4
17.2
16.2
10.6
9.9
11.3
11.4
11.6
11.6
8.2
7.7
7.5
7.3
7.2
7.0
7.0
6.9
6.9
6.7
6.7
5.3
4.7
3.3
2.5
1.8
1.3
1.2
1.3
1.2
1.1
1.1
1.0
0.8
0.8
0.6
0.5
0.5
0.5
0.4
0.4
0.4
0.4
0.4
0.3
0.4
0.3
0.3
0.2
0.3
0.3
1.192826
1.829680
1.814215
1.555597
1.338706
1.826255
1.623798
1.491804
1.981438
1.421131
1.178203
1.158287
1.908460
1.817205
1.001129
1.291378
1.437383
1.751339
1.083707
1.632581
1.350419